Capítulo 2 Programación estadística en R | Análisis Estadístico: Muestreo
…
## Warning in inclusionprobabilities(pik[y], size[i]): there are zero values in the initial vector a

## Number of strata  16 
## Total number of selected units 2502

muestra_estratificada_prob_ppt <- marco_estratificado %>% 
  filter(ID_unit %in% muestra_estratificada2$ID_unit) %>% 
  left_join(muestra_estratificada2, by = "ID_unit") %>% 
  mutate(fe_mzn = 1/Prob)

muestra_estratificada_prob_ppt

## # A tibble: 2,502 × 12
##    ID_unit CVEGEO      VIV2 POB21 POB52 POB77 alcaldia id_estrato.x id_estrato.y
##      <int> <fct>      <int> <int> <int> <int> <chr>           <int>        <int>
##  1       9 090020001…    31   102    50    52 002                 1            1
##  2      43 090020001…    44   129    72    57 002                 1            1
##  3      64 090020001…    11    43    20    23 002                 1            1
##  4      92 090020001…    46   131    64    67 002                 1            1
##  5     128 090020001…    41   111    66    45 002                 1            1
##  6     157 090020001…    39   127    66    61 002                 1            1
##  7     200 090020001…    19    59    33    26 002                 1            1
##  8     215 090020001…   164   422   222   200 002                 1            1
##  9     236 090020001…    11    30    15    15 002                 1            1
## 10     255 090020001…    70   168    96    72 002                 1            1
## # … with 2,492 more rows, and 3 more variables: Prob <dbl>, Stratum <int>,
## #   fe_mzn <dbl>
…
marco_estratificado_pik <- marco_estratificado %>% 
  left_join(select(afijacion_proporcional, id_estrato, n_h), by = "id_estrato") %>% 
  mutate(pik = inclusionprobastrata(id_estrato,afijacion_proporcional %>% pull(n_h))) %>% 
  group_by(id_estrato) %>% 
  mutate(pik_2 = VIV2 / sum(VIV2)*n_h)

marco_estratificado_pik

## # A tibble: 63,239 × 11
## # Groups:   id_estrato [16]
##    ID_unit CVEGEO        VIV2 POB21 POB52 POB77 alcaldia id_estrato   n_h    pik
##      <int> <fct>        <int> <int> <int> <int> <chr>         <int> <dbl>  <dbl>
##  1       1 09002000100…    47   157    81    76 002               1   120 0.0401
##  2       2 09002000100…    41   115    66    49 002               1   120 0.0401
##  3       3 09002000100…    30   103    58    45 002               1   120 0.0401
##  4       4 09002000100…    40   132    70    62 002               1   120 0.0401
##  5       5 09002000100…    38   121    64    57 002               1   120 0.0401
##  6       6 09002000100…    39   132    79    53 002               1   120 0.0401
##  7       7 09002000100…    48   154    79    75 002               1   120 0.0401
##  8       8 09002000100…    31    90    49    41 002               1   120 0.0401
##  9       9 09002000100…    31   102    50    52 002               1   120 0.0401
## 10      10 09002000100…     0     0     0     0 002               1   120 0.0401
## # … with 63,229 more rows, and 1 more variable: pik_2 <dbl>
…
##     ID_unit   : integer
##     CVEGEO    : factor<bec5b>
##     VIV2      : integer
##     POB21     : integer
##     POB52     : integer
##     POB77     : integer
##     alcaldia  : character
##     id_estrato: integer
##     n_h       : double
##     pik       : double
##     pik_2     : double
##   >
## >[16]>
## [[1]]
## # A tibble: 2,991 × 11
##    ID_unit CVEGEO        VIV2 POB21 POB52 POB77 alcaldia id_estrato   n_h    pik
##      <int> <fct>        <int> <int> <int> <int> <chr>         <int> <dbl>  <dbl>
##  1       1 09002000100…    47   157    81    76 002               1   120 0.0401
##  2       2 09002000100…    41   115    66    49 002               1   120 0.0401
##  3       3 09002000100…    30   103    58    45 002               1   120 0.0401
##  4       4 09002000100…    40   132    70    62 002               1   120 0.0401
##  5       5 09002000100…    38   121    64    57 002               1   120 0.0401
##  6       6 09002000100…    39   132    79    53 002               1   120 0.0401
##  7       7 09002000100…    48   154    79    75 002               1   120 0.0401
##  8       8 09002000100…    31    90    49    41 002               1   120 0.0401
##  9       9 09002000100…    31   102    50    52 002               1   120 0.0401
## 10      10 09002000100…     0     0     0     0 002               1   120 0.0401
## # … with 2,981 more rows, and 1 more variable: pik_2 <dbl>
## 
## [[2]]
## # A tibble: 4,715 × 11
##    ID_unit CVEGEO        VIV2 POB21 POB52 POB77 alcaldia id_estrato   n_h    pik
##      <int> <fct>        <int> <int> <int> <int> <chr>         <int> <dbl>  <dbl>
##  1    2992 09003000100…     0     0     0     0 003               2   183 0.0388
##  2    2993 09003000100…    32    89    58    31 003               2   183 0.0388
##  3    2994 09003000100…    41   107    57    50 003               2   183 0.0388
##  4    2995 09003000100…    12    31    16    15 003               2   183 0.0388
##  5    2996 09003000100…    23    51    27    24 003               2   183 0.0388
##  6    2997 09003000100…    16    47    27    20 003               2   183 0.0388
##  7    2998 09003000100…    39    89    50    39 003               2   183 0.0388
##  8    2999 09003000100…    44    94    49    45 003               2   183 0.0388
##  9    3000 09003000100…     0     0     0     0 003               2   183 0.0388
## 10    3001 09003000100…    12    31    16    15 003               2   183 0.0388
## # … with 4,705 more rows, and 1 more variable: pik_2 <dbl>
## 
## [[3]]
## # A tibble: 1,006 × 11
##    ID_unit CVEGEO        VIV2 POB21 POB52 POB77 alcaldia id_estrato   n_h    pik
##      <int> <fct>        <int> <int> <int> <int> <chr>         <int> <dbl>  <dbl>
##  1    7707 09004000100…    42   107    56    51 004               3    48 0.0477
##  2    7708 09004000100…    52   130    72    58 004               3    48 0.0477
##  3    7709 09004000100…    65   161    83    78 004               3    48 0.0477
##  4    7710 09004000100…    58   170    91    79 004               3    48 0.0477
##  5    7711 09004000100…    44   118    59    59 004               3    48 0.0477
##  6    7712 09004000100…    32   103    58    45 004               3    48 0.0477
##  7    7713 09004000100…    41   105    55    50 004               3    48 0.0477
##  8    7714 09004000100…    45   122    63    59 004               3    48 0.0477
##  9    7715 09004000100…    33    92    42    50 004               3    48 0.0477
## 10    7716 09004000100…    78   193   113    80 004               3    48 0.0477
## # … with 996 more rows, and 1 more variable: pik_2 <dbl>
## 
## [[4]]
## # A tibble: 8,330 × 11
##    ID_unit CVEGEO        VIV2 POB21 POB52 POB77 alcaldia id_estrato   n_h    pik
##      <int> <fct>        <int> <int> <int> <int> <chr>         <int> <dbl>  <dbl>
##  1    8713 09005000100…    43   110    58    52 005               4   332 0.0399
##  2    8714 09005000100…    44   119    58    61 005               4   332 0.0399
##  3    8715 09005000100…    40   106    55    51 005               4   332 0.0399
##  4    8716 09005000100…    34    80    45    35 005               4   332 0.0399
##  5    8717 09005000100…    45   109    57    52 005               4   332 0.0399
##  6    8718 09005000100…    39    94    48    46 005               4   332 0.0399
##  7    8719 09005000100…    41   106    52    54 005               4   332 0.0399
##  8    8720 09005000100…    22    43    25    18 005               4   332 0.0399
##  9    8721 09005000100…     5    17     9     8 005               4   332 0.0399
## 10    8722 09005000100…    44   117    58    59 005               4   332 0.0399
## # … with 8,320 more rows, and 1 more variable: pik_2 <dbl>
## 
## [[5]]
## # A tibble: 2,780 × 11
##    ID_unit CVEGEO        VIV2 POB21 POB52 POB77 alcaldia id_estrato   n_h    pik
##      <int> <fct>        <int> <int> <int> <int> <chr>         <int> <dbl>  <dbl>
##  1   17043 09006000100…   106   278   147   131 006               5   107 0.0385
##  2   17044 09006000100…     1    NA    NA    NA 006               5   107 0.0385
##  3   17045 09006000100…    88   238   126   112 006               5   107 0.0385
##  4   17046 09006000100…    81   185    95    90 006               5   107 0.0385
##  5   17047 09006000100…    77   201   115    86 006               5   107 0.0385
##  6   17048 09006000100…   300   712   377   335 006               5   107 0.0385
##  7   17049 09006000100…    28    76    40    36 006               5   107 0.0385
##  8   17050 09006000100…    51   157    82    75 006               5   107 0.0385
##  9   17051 09006000100…     2    NA    NA    NA 006               5   107 0.0385
## 10   17052 09006000100…    69   197   103    94 006               5   107 0.0385
## # … with 2,770 more rows, and 1 more variable: pik_2 <dbl>
## 
## [[6]]
## # A tibble: 14,394 × 11
##    ID_unit CVEGEO        VIV2 POB21 POB52 POB77 alcaldia id_estrato   n_h    pik
##      <int> <fct>        <int> <int> <int> <int> <chr>         <int> <dbl>  <dbl>
##  1   19823 09007000100…     6    14    11     3 007               6   477 0.0331
##  2   19824 09007000100…    40   103    54    49 007               6   477 0.0331
##  3   19825 09007000100…    48   127    65    62 007               6   477 0.0331
##  4   19826 09007000100…    41   105    54    51 007               6   477 0.0331
##  5   19827 09007000100…    23    81    37    44 007               6   477 0.0331
##  6   19828 09007000100…    46   109    58    51 007               6   477 0.0331
##  7   19829 09007000100…    39   108    63    45 007               6   477 0.0331
##  8   19830 09007000100…    41   108    56    52 007               6   477 0.0331
##  9   19831 09007000100…    21    54    31    23 007               6   477 0.0331
## 10   19832 09007000100…    61   158    82    76 007               6   477 0.0331
## # … with 14,384 more rows, and 1 more variable: pik_2 <dbl>
## 
## [[7]]
## # A tibble: 1,414 × 11
##    ID_unit CVEGEO        VIV2 POB21 POB52 POB77 alcaldia id_estrato   n_h    pik
##      <int> <fct>        <int> <int> <int> <int> <chr>         <int> <dbl>  <dbl>
##  1   34217 09008000100…    24    54    28    26 008               7    66 0.0467
##  2   34218 09008000100…    44   105    58    47 008               7    66 0.0467
##  3   34219 09008000100…     7    15    10     5 008               7    66 0.0467
##  4   34220 09008000100…   111   267   168    99 008               7    66 0.0467
##  5   34221 09008000100…    27    77    42    35 008               7    66 0.0467
##  6   34222 09008000100…   106   244   134   110 008               7    66 0.0467
##  7   34223 09008000100…    11    30    18    12 008               7    66 0.0467
##  8   34224 09008000100…     4    11     6     5 008               7    66 0.0467
##  9   34225 09008000100…     4     8     3     5 008               7    66 0.0467
## 10   34226 09008000100…     4    11     6     5 008               7    66 0.0467
## # … with 1,404 more rows, and 1 more variable: pik_2 <dbl>
## 
## [[8]]
## # A tibble: 941 × 11
##    ID_unit CVEGEO        VIV2 POB21 POB52 POB77 alcaldia id_estrato   n_h    pik
##      <int> <fct>        <int> <int> <int> <int> <chr>         <int> <dbl>  <dbl>
##  1   35631 09009000100…     1    NA    NA    NA 009               8    29 0.0308
##  2   35632 09009000100…     0     0     0     0 009               8    29 0.0308
##  3   35633 09009000100…     4    14     7     7 009               8    29 0.0308
##  4   35634 09009000100…    20    71    40    31 009               8    29 0.0308
##  5   35635 09009000100…    19    51    25    26 009               8    29 0.0308
##  6   35636 09009000100…    15    61    28    33 009               8    29 0.0308
##  7   35637 09009000100…    15    48    29    19 009               8    29 0.0308
##  8   35638 09009000100…    15    44    26    18 009               8    29 0.0308
##  9   35639 09009000100…    18    54    26    28 009               8    29 0.0308
## 10   35640 09009000100…    26    62    33    29 009               8    29 0.0308
## # … with 931 more rows, and 1 more variable: pik_2 <dbl>
## 
## [[9]]
## # A tibble: 5,244 × 11
##    ID_unit CVEGEO        VIV2 POB21 POB52 POB77 alcaldia id_estrato   n_h    pik
##      <int> <fct>        <int> <int> <int> <int> <chr>         <int> <dbl>  <dbl>
##  1   36572 09010000100…     4    19     9    10 010               9   205 0.0391
##  2   36573 09010000100…     1    NA    NA    NA 010               9   205 0.0391
##  3   36574 09010000100…     2    NA    NA    NA 010               9   205 0.0391
##  4   36575 09010000100…    11    50    28    22 010               9   205 0.0391
##  5   36576 09010000100…     3     8     5     3 010               9   205 0.0391
##  6   36577 09010000100…    26    68    34    34 010               9   205 0.0391
##  7   36578 09010000100…    17    50    32    18 010               9   205 0.0391
##  8   36579 09010000100…     9    20    10    10 010               9   205 0.0391
##  9   36580 09010000100…     9    25    17     8 010               9   205 0.0391
## 10   36581 09010000100…    20    53    23    30 010               9   205 0.0391
## # … with 5,234 more rows, and 1 more variable: pik_2 <dbl>
## 
## [[10]]
## # A tibble: 3,002 × 11
##    ID_unit CVEGEO        VIV2 POB21 POB52 POB77 alcaldia id_estrato   n_h    pik
##      <int> <fct>        <int> <int> <int> <int> <chr>         <int> <dbl>  <dbl>
##  1   41816 09011000100…    91   235   121   114 011              10    94 0.0313
##  2   41817 09011000100…   163   438   241   197 011              10    94 0.0313
##  3   41818 09011000100…    70   191    98    93 011              10    94 0.0313
##  4   41819 09011000100…    64   172    87    85 011              10    94 0.0313
##  5   41820 09011000100…    42   130    69    61 011              10    94 0.0313
##  6   41821 09011000100…   236   582   308   274 011              10    94 0.0313
##  7   41822 09011000100…     7    22    11    11 011              10    94 0.0313
##  8   41823 09011000100…     9    24    14    10 011              10    94 0.0313
##  9   41824 09011000100…    10    24    12    12 011              10    94 0.0313
## 10   41825 09011000100…     8    30    19    11 011              10    94 0.0313
## # … with 2,992 more rows, and 1 more variable: pik_2 <dbl>
## 
## [[11]]
## # A tibble: 4,893 × 11
##    ID_unit CVEGEO        VIV2 POB21 POB52 POB77 alcaldia id_estrato   n_h    pik
##      <int> <fct>        <int> <int> <int> <int> <chr>         <int> <dbl>  <dbl>
##  1   44818 09012000100…   112   324   195   129 012              11   177 0.0362
##  2   44819 09012000100…   138   274   149   125 012              11   177 0.0362
##  3   44820 09012000100…    19    50    29    21 012              11   177 0.0362
##  4   44821 09012000100…    22    74    42    32 012              11   177 0.0362
##  5   44822 09012000100…    20    67    38    29 012              11   177 0.0362
##  6   44823 09012000100…   336   672   379   293 012              11   177 0.0362
##  7   44824 09012000100…     0     0     0     0 012              11   177 0.0362
##  8   44825 09012000100…    33    99    58    41 012              11   177 0.0362
##  9   44826 09012000100…     0     0     0     0 012              11   177 0.0362
## 10   44827 09012000100…    24    74    40    34 012              11   177 0.0362
## # … with 4,883 more rows, and 1 more variable: pik_2 <dbl>
## 
## [[12]]
## # A tibble: 2,738 × 11
##    ID_unit CVEGEO        VIV2 POB21 POB52 POB77 alcaldia id_estrato   n_h    pik
##      <int> <fct>        <int> <int> <int> <int> <chr>         <int> <dbl>  <dbl>
##  1   49711 09013000100…    37   106    53    53 013              12   105 0.0383
##  2   49712 09013000100…     9    34    16    18 013              12   105 0.0383
##  3   49713 09013000100…    45   134    73    61 013              12   105 0.0383
##  4   49714 09013000100…    44   116    64    52 013              12   105 0.0383
##  5   49715 09013000100…    43   116    68    48 013              12   105 0.0383
##  6   49716 09013000100…    26    74    45    29 013              12   105 0.0383
##  7   49717 09013000100…     8    27    16    11 013              12   105 0.0383
##  8   49718 09013000100…    35    97    51    46 013              12   105 0.0383
##  9   49719 09013000100…    10    17     9     8 013              12   105 0.0383
## 10   49720 09013000100…    20    48    26    22 013              12   105 0.0383
## # … with 2,728 more rows, and 1 more variable: pik_2 <dbl>
## 
## [[13]]
## # A tibble: 2,217 × 11
##    ID_unit CVEGEO        VIV2 POB21 POB52 POB77 alcaldia id_estrato   n_h    pik
##      <int> <fct>        <int> <int> <int> <int> <chr>         <int> <dbl>  <dbl>
##  1   52449 09014000100…    59   107    56    51 014              13   139 0.0627
##  2   52450 09014000100…   116   241   140   101 014              13   139 0.0627
##  3   52451 09014000100…   132   273   149   124 014              13   139 0.0627
##  4   52452 09014000100…    59   132    73    59 014              13   139 0.0627
##  5   52453 09014000100…    40    75    43    32 014              13   139 0.0627
##  6   52454 09014000100…    79   135    66    69 014              13   139 0.0627
##  7   52455 09014000100…   106   215   113   102 014              13   139 0.0627
##  8   52456 09014000100…    38    92    50    42 014              13   139 0.0627
##  9   52457 09014000100…    19    46    22    24 014              13   139 0.0627
## 10   52458 09014000100…   224   450   241   209 014              13   139 0.0627
## # … with 2,207 more rows, and 1 more variable: pik_2 <dbl>
## 
## [[14]]
## # A tibble: 2,704 × 11
##    ID_unit CVEGEO        VIV2 POB21 POB52 POB77 alcaldia id_estrato   n_h    pik
##      <int> <fct>        <int> <int> <int> <int> <chr>         <int> <dbl>  <dbl>
##  1   54666 09015000100…    45   123    66    57 015              14   177 0.0655
##  2   54667 09015000100…    77   221   123    98 015              14   177 0.0655
##  3   54668 09015000100…    64   213   113   100 015              14   177 0.0655
##  4   54669 09015000100…    99   238   133   105 015              14   177 0.0655
##  5   54670 09015000100…     0     0     0     0 015              14   177 0.0655
##  6   54671 09015000100…    55   149    78    71 015              14   177 0.0655
##  7   54672 09015000100…    66   143    81    62 015              14   177 0.0655
##  8   54673 09015000100…    69   190    99    91 015              14   177 0.0655
##  9   54674 09015000100…    64   164    82    82 015              14   177 0.0655
## 10   54675 09015000100…    37    94    57    37 015              14   177 0.0655
## # … with 2,694 more rows, and 1 more variable: pik_2 <dbl>
## 
## [[15]]
…
